…
# Contar frecuencias
frequencies <- tibble(word = all_words) %>%
  filter(!word %in% stop_words) %>%
  count(word, sort = TRUE)

top_25 <- frequencies %>%
  slice_head(n = 25)

top_25
```

    ## # A tibble: 25 × 2
    ##    word         n
    ##    <chr>    <int>
    ##  1 I       590693
    ##  2 br      136733
    ##  3 product 100611
    ##  4 The      94876
    ##  5 It       81424
    ##  6 use      80636
    ##  7 like     76352
    ##  8 great    71485
    ##  9 This     69662
    ## 10 one      64936
    ## # ℹ 15 more rows
